LDA Modelling with 2019
…
March 27, 2020

The dataframe contains complaints with narrative made in 2019 and were closed with monetary relief.

narrative <- df %>% 
    unnest_tokens(word, `Consumer complaint narrative`) %>%
    anti_join(stop_words)
narrative <- narrative %>% 
    filter(!(word %in% c("xxxx", "xx")))
narrative %>% 
    count(word, sort = TRUE) %>%
    head(25)

## # A tibble: 25 x 2
##    word         n
##    <chr>    <int>
##  1 account  13766
##  2 bank      8455
##  3 card      8149
##  4 credit    6910
##  5 told      5332
##  6 payment   5101
##  7 called    4706
##  8 received  4132
##  9 time      3751
## 10 money     3654
## #  with 15 more rows
…
