LDA Modelling with 2018
…
March 27, 2020

The dataframe contains complaints with narrative made in 2019 and were closed with monetary relief.

narrative <- df %>% 
    unnest_tokens(word, `Consumer complaint narrative`) %>%
    anti_join(stop_words)
narrative <- narrative %>% 
    filter(!(word %in% c("xxxx", "xx")))
narrative %>% 
    count(word, sort = TRUE) %>%
    head(25)

## # A tibble: 25 x 2
##    word         n
##    <chr>    <int>
##  1 account  15263
##  2 bank      9020
##  3 card      8051
##  4 credit    7659
##  5 payment   6115
##  6 told      5905
##  7 called    5069
##  8 received  4355
##  9 money     4047
## 10 time      3942
## #  with 15 more rows
…
