LDA Modelling with 2017
…
March 27, 2020

The dataframe contains complaints with narrative made in 2019 and were closed with monetary relief.

narrative <- df %>% 
    unnest_tokens(word, `Consumer complaint narrative`) %>%
    anti_join(stop_words)
narrative <- narrative %>% 
    filter(!(word %in% c("xxxx", "xx")))
narrative %>% 
    count(word, sort = TRUE) %>%
    head(25)

## # A tibble: 25 x 2
##    word         n
##    <chr>    <int>
##  1 account  14384
##  2 bank      9456
##  3 card      7704
##  4 credit    7354
##  5 payment   5787
##  6 told      5663
##  7 called    4624
##  8 received  4256
##  9 n't       4003
## 10 time      3779
## #  with 15 more rows
…
